%YAML 1.1
%TAG !u! tag:unity3d.com,2011:
--- !u!114 &11400000
MonoBehaviour:
  m_ObjectHideFlags: 0
  m_CorrespondingSourceObject: {fileID: 0}
  m_PrefabInstance: {fileID: 0}
  m_PrefabAsset: {fileID: 0}
  m_GameObject: {fileID: 0}
  m_Enabled: 1
  m_EditorHideFlags: 0
  m_Script: {fileID: 11500000, guid: 21f7a5f9892d7914a82ce25e428457d5, type: 3}
  m_Name: AnvilProjectConfig
  m_EditorClassIdentifier: 
  _projectCode: OIPPEN
  _doAndroidManifestTemplateMods: 1
  _doSkipUnityAndroidPermissionsDialog: 0
  _gradleSettings:
    _repoMods: []
    _depMods: []
    _multiDexEnabled: 0
    _packMods: []
  _iosConfig:
    _isEnableBitcode: 0
    _isEnableSwift: 0
    _swiftVersion: 
    _isRemovePushNotificationCapability: 0
    _isForceLegacyBuildSystem: 0
  _tvosConfig:
    _isEnableBitcode: 1
    _isEnableSwift: 0
    _swiftVersion: 
    _isRemovePushNotificationCapability: 0
    _isForceLegacyBuildSystem: 0
  _webGLFallbackFontName: 
  _webGLFallbackFont: {fileID: 0}
  _webGLFallbackFontTargets: []
