%YAML 1.1
%TAG !u! tag:unity3d.com,2011:
--- !u!1045 &1
EditorBuildSettings:
  m_ObjectHideFlags: 0
  serializedVersion: 2
  m_Scenes:
  - enabled: 1
    path: Assets/PROTOTYPE/Scenes/Game.unity
    guid: 8b07886c578086d40b19f683f96ec8e0
  m_configObjects: {}
